ID,Declension,Regularity,Paradigm
1,first,1REG,puella
2,second,2/-er,ager
3,second,2/puer,puer
4,second,2/-um,bellum
5,second,2/-us,dominus
6,third,3MFREG,urbs
7,third,"3MF/-_c,g-",rex
8,third,"3MF/-_l,r-",consul
9,third,"3MF/-_t,d-",ars
10,third,3MF/+e-,clades
11,third,3MF/-+i-,civis
12,third,3MF/coniunx,coniunx
13,third,3MF/-in-,homo
14,third,3MF/-ion-,legio
15,third,"3MF/-it,d-",eques
16,third,3MF/iudex,iudex
17,third,3MF/mos,mos
18,third,3MF/-or,amor
19,third,3MF/princeps,princeps
20,third,3MF/sanguis,sanguis
21,third,3MF/senex,senex
22,third,3MF/-tr-,pater
23,third,3N/-in-,nomen
24,third,3N/iter,iter
25,third,3N/-it-,caput
26,third,3N/mare,mare
27,third,"3N/-or,-er,ur-",corpus
28,third,3N/os,os
29,fourth,4MFREG,gradus
30,fourth,4NREG,cornu
31,fifth,5REG,res
