ID,Noun Root,Declension,Gender,Paradigm Noun,Meaning
1,agricol,first,masculine,puella,farmer
2,amic,first,feminine,puella,"girl-friend, female friend"
3,ancill,first,feminine,puella,"slave-girl, slave-woman"
4,aqu,first,feminine,puella,water
5,aquil,first,feminine,puella,"eagle, standard"
6,ar,first,feminine,puella,altar
7,caus,first,feminine,puella,"cause, reason, case"
8,cen,first,feminine,puella,"dinner, meal"
9,copi,first,feminine,puella,"troops, forces, supplies"
10,culp,first,feminine,puella,"fault, blame"
11,cur,first,feminine,puella,"care, charge, anxiety"
12,de,first,feminine,puella,goddess
13,dextr,first,feminine,puella,"right hand, right side"
14,diviti,first,feminine,puella,"riches, wealth"
15,domin,first,feminine,puella,mistress
16,epistul,first,feminine,puella,letter
17,fama,first,feminine,puella,"rumour, fame, glory"
18,famili,first,feminine,puella,"family, household"
19,femin,first,feminine,puella,woman
20,fili,first,feminine,puella,daughter
21,flamm,first,feminine,puella,"blaze, flame, passion"
22,fortun,first,feminine,puella,"fate, luck, fortune (good or bad)"
23,fug,first,feminine,puella,"flight, escape"
24,grati,first,feminine,puella,"favour, thanks, esteem"
25,hast,first,feminine,puella,spear
26,hor,first,feminine,puella,hour
27,iniuri,first,feminine,puella,"injustice, injury, wrong"
28,inopi,first,feminine,puella,"shortage, lack, poverty"
29,insidi,first,feminine,puella,"ambush, trap, trick"
30,insul,first,feminine,puella,"island, block (of apartments)"
31,ir,first,feminine,puella,anger
32,litter,first,feminine,puella,letter
33,mor,first,feminine,puella,delay
34,natur,first,feminine,puella,nature
35,naut,first,masculine,puella,sailor
36,oper,first,feminine,puella,"work, effort, attention, trouble"
37,or,first,feminine,puella,coast
38,patri,first,feminine,puella,"homeland, native land"
39,pecuni,first,feminine,puella,money
40,poen,first,feminine,puella,"punishment, penalty"
41,port,first,feminine,puella,gate
42,praed,first,feminine,puella,"booty, plunder"
43,provinci,first,feminine,puella,province
44,puell,first,feminine,puella,girl
45,pugn,first,feminine,puella,"fight, battle"
46,regin,first,feminine,puella,queen
47,rip,first,feminine,puella,bank
48,sapienti,first,feminine,puella,"wisdom, good sense"
49,sententi,first,feminine,puella,"opinion, judgement, sentence"
50,silv,first,feminine,puella,"wood, forest"
51,sinistr,first,feminine,puella,"left hand, left side"
52,tabern,first,feminine,puella,"shop, inn"
53,terr,first,feminine,puella,"ground, land, earth"
54,turb,first,feminine,puella,"crowd, mob, disturbance, multitude"
55,und,first,feminine,puella,wave
56,vi,first,feminine,puella,"street, road, way, path"
57,victori,first,feminine,puella,victory
58,vill,first,feminine,puella,"country-house, estate, farm"
59,vit,first,feminine,puella,life
60,agr,second,masculine,ager,"field, land, territory"
61,libr,second,masculine,ager,book
62,magistr,second,masculine,ager,"teacher, master"
63,vir,second,masculine,puer,"man, husband"
64,puer,second,masculine,puer,boy
65,vesper,second,masculine,puer,evening
66,aedifici,second,neuter,bellum,building
67,argent,second,neuter,bellum,"arms, weapons, armour"
68,arm,second,neuter,bellum,"sky, heaven"
69,auxili,second,neuter,bellum,help; (pl ) (auxiliary) troops
70,bell,second,neuter,bellum,war
71,benefici,second,neuter,bellum,"kindness, service, favour"
72,bon,second,neuter,bellum,"goods, possessions, property"
73,cael,second,neuter,bellum,"silver, money"
74,castr,second,neuter,bellum,camp
75,consili,second,neuter,bellum,"council, plan, advice, prudence"
76,don,second,neuter,bellum,"gift, present"
77,exempl,second,neuter,bellum,"example, precedent"
78,exili,second,neuter,bellum,exile
79,exiti,second,neuter,bellum,"ruin, destruction"
80,ferr,second,neuter,bellum,"iron, sword"
81,for,second,neuter,bellum,"forum, market place"
82,frument,second,neuter,bellum,"corn, grain"
83,gaudi,second,neuter,bellum,"joy, delight"
84,imperi,second,neuter,bellum,"command, power, empire"
85,incendi,second,neuter,bellum,fire
86,ingeni,second,neuter,bellum,"character, ability"
87,initi,second,neuter,bellum,beginning
88,negoti,second,neuter,bellum,business
89,odi,second,neuter,bellum,hatred
90,offici,second,neuter,bellum,"duty, task, function"
91,oppid,second,neuter,bellum,town
92,oti,second,neuter,bellum,"leisure, idleness, peace"
93,pericul,second,neuter,bellum,danger
94,pil,second,neuter,bellum,javelin
95,praemi,second,neuter,bellum,"prize, reward"
96,praesidi,second,neuter,bellum,"protection, garrison, fortification"
97,preti,second,neuter,bellum,"price, value"
98,proeli,second,neuter,bellum,battle
99,regn,second,neuter,bellum,"kingdom, reign, rule"
100,respons,second,neuter,bellum,"answer, reply"
101,scut,second,neuter,bellum,shield
102,sign,second,neuter,bellum,"sign, signal, standard"
103,silenti,second,neuter,bellum,silence
104,spati,second,neuter,bellum,"interval, space, distance"
105,spoli,second,neuter,bellum,"booty, spoil(s)"
106,studi,second,neuter,bellum,"eagerness, study, devotion"
107,tect,second,neuter,bellum,"roof, house"
108,tel,second,neuter,bellum,"weapon, javelin, missile"
109,templ,second,neuter,bellum,temple
110,terg,second,neuter,bellum,"back, rear"
111,verb,second,neuter,bellum,word
112,amic,second,masculine,dominus,friend
113,anim,second,masculine,dominus,"spirit, soul, mind, courage"
114,ann,second,masculine,dominus,year
115,camp,second,masculine,dominus,"plain, field"
116,captiv,second,masculine,dominus,"captive, prisoner"
117,cib,second,masculine,dominus,food
118,de,second,masculine,dominus,god
119,dol,second,masculine,dominus,"trick, fraud"
120,domin,second,masculine,dominus,master
121,equ,second,masculine,dominus,horse
122,fili,second,masculine,dominus,son
123,gladi,second,masculine,dominus,sword
124,hort,second,masculine,dominus,garden
125,hum,second,masculine,dominus,"ground, earth"
126,inimic,second,masculine,dominus,enemy
127,legat,second,masculine,dominus,"legionary commander, ambassador, envoy"
128,liber,second,masculine,dominus,children
129,libert,second,masculine,dominus,"freedman, ex-slave"
130,loc,second,masculine,dominus,"place, position, situation, opportunity"
131,marit,second,masculine,dominus,husband
132,mod,second,masculine,dominus,"manner, way, kind"
133,morb,second,masculine,dominus,"sickness, disease"
134,mur,second,masculine,dominus,"wall, rampart"
135,numer,second,masculine,dominus,number
136,nunti,second,masculine,dominus,"messenger, message, news"
137,ocul,second,masculine,dominus,eye
138,popul,second,masculine,dominus,"people, nation"
139,serv,second,masculine,dominus,slave
140,soci,second,masculine,dominus,"ally, comrade, companion"
141,somn,second,masculine,dominus,sleep
142,son,second,masculine,dominus,"noise, sound"
143,vent,second,masculine,dominus,wind
144,hiem,third,feminine,urbs,"winter, storm"
145,op,third,feminine,urbs,help
146,op,third,feminine,urbs,"resources, riches"
147,pleb,third,feminine,urbs,"the people, common people"
148,urb,third,feminine,urbs,"city, town, Rome"
149,duc,third,masculine,rex,"leader, general, ruler"
150,leg,third,feminine,rex,law
151,luc,third,feminine,rex,"light, daylight"
152,noct,third,feminine,rex,night
153,pac,third,feminine,rex,peace
154,reg,third,masculine,rex,king
155,voc,third,feminine,rex,"voice, shout, word"
156,consul,third,masculine,consul,consul
157,sol,third,masculine,consul,"sun, sunlight"
158,mulier,third,feminine,consul,woman
159,adulescent,third,masculine,ars,"youth, young man"
160,art,third,feminine,ars,"art, skill"
161,caed,third,feminine,ars,"slaughter, killing, murder"
162,civitat,third,feminine,ars,"citizenship, state, city, tribe"
163,cohort,third,feminine,ars,"cohort, company"
164,custod,third,ambi,ars,guard
165,dignitat,third,feminine,ars,"rank, dignity, importance, honour"
166,gent,third,feminine,ars,"race, people, family, tribe, nation"
167,laud,third,feminine,ars,"praise, honour, credit"
168,libertat,third,feminine,ars,freedom
169,ment,third,feminine,ars,mind
170,mont,third,masculine,ars,mountain
171,mort,third,feminine,ars,death
172,parent,third,ambi,ars,parent; (pl) relations
173,part,third,feminine,ars,"part, some, direction"
174,ped,third,masculine,ars,foot
175,pont,third,masculine,ars,bridge
176,potestat,third,feminine,ars,"power, authority, opportunity"
177,quiet,third,feminine,ars,"rest, peace, quiet"
178,sacerdot,third,ambi,ars,"priest, priestess"
179,salut,third,feminine,ars,"health, safety, greeting"
180,tempestat,third,feminine,ars,"weather, storm, time"
181,virtut,third,feminine,ars,"courage, virtue"
182,clad,third,feminine,clades,"disaster, loss, defeat"
183,sed,third,feminine,clades,"seat, temple, home"
184,can,third,ambi,clades,dog
185,civ,third,ambi,civis,citizen
186,host,third,masculine,civis,enemy
187,ign,third,masculine,civis,fire
188,nav,third,feminine,civis,ship
189,vest,third,feminine,civis,clothes
190,fin,third,masculine,finis,"end, boundary, pl territory"
191,mens,third,masculine,finis,month
192,coniug,third,ambi,coniunx,"husband, wife, spouse"
193,homin,third,masculine,homo,"man, person"
194,multitudin,third,feminine,homo,"crowd, multitude"
195,ordin,third,masculine,homo,"rank, order, line"
196,centurion,third,masculine,legio,centurion
197,legion,third,feminine,legio,legion
198,occasion,third,feminine,legio,"opportunity, occasion"
199,oration,third,feminine,legio,speech
200,ration,third,feminine,legio,"account, reckoning, manner, reason"
201,comit,third,ambi,eques,"comrade, companion"
202,equit,third,masculine,eques,"knight, horseman, (pl) cavalry"
203,hospit,third,masculine,eques,"guest, host"
204,milit,third,masculine,eques,soldier
205,obsid,third,ambi,eques,hostage
206,pedit,third,masculine,eques,infantry
207,iudic,third,masculine,iudex,"judge, juror"
208,mor,third,masculine,mos,"habit, custom, (pl) character, morals"
209,amor,third,masculine,amor,love
210,arbor,third,feminine,amor,tree
211,clamor,third,masculine,amor,"shout, uproar, noise"
212,dolor,third,masculine,amor,"pain, sorrow, anger"
213,furor,third,masculine,amor,"rage, fury, madness, passion"
214,honor,third,masculine,amor,"honour, esteem, glory"
215,imperator,third,masculine,amor,"emperor, general, leader"
216,labor,third,masculine,amor,"work, toil, trouble"
217,mercator,third,masculine,amor,merchant
218,praetor,third,masculine,amor,praetor (acted as judge or governor)
219,pudor,third,masculine,amor,"shame, modesty, honour, disgrace"
220,senator,third,masculine,amor,senator
221,soror,third,feminine,amor,sister
222,terror,third,masculine,amor,"terror, panic"
223,timor,third,masculine,amor,"fear, anxiety"
224,uxor,third,feminine,amor,wife
225,victor,third,masculine,amor,"victor, conqueror"
226,princip,third,masculine,princeps,"emperor, chief, chieftain"
227,sanguin,third,masculine,sanguis,blood
228,sen,third,masculine,senex,old man
229,fratr,third,masculine,pater,brother
230,matr,third,feminine,pater,mother
231,patr,third,feminine,pater,father
232,agmin,third,neuter,nomen,"column of men, army"
233,certamin,third,neuter,nomen,"contest, battle, struggle"
234,crimin,third,neuter,nomen,"accusation, charge, crime"
235,flumin,third,neuter,nomen,river
236,nomin,third,neuter,nomen,name
237,capit,third,neuter,caput,"head, person, life, capital"
238,itiner,third,neuter,iter,"journey, march, way"
239,mar,third,neuter,mare,sea
240,moener,third,neuter,mare,"city walls, city"
241,corpor,third,neuter,corpus,body
242,facinor,third,neuter,corpus,"crime, outrage, deed"
243,foeder,third,neuter,corpus,"treaty, agreement"
244,frigor,third,neuter,corpus,cold
245,gener,third,neuter,corpus,"race, descent, birth, kind"
246,later,third,neuter,corpus,"side, wing"
247,litor,third,neuter,corpus,"sea-shore, beach"
248,muner,third,neuter,corpus,"service, duty, present"
249,oner,third,neuter,corpus,"burden, load"
250,oper,third,neuter,corpus,"work, toil, construction"
251,rur,third,neuter,corpus,"country, countryside"
252,sceler,third,neuter,corpus,"crime, wickedness"
253,tempor,third,neuter,corpus,time
254,vulner,third,neuter,corpus,"wound, injury"
255,or,third,neuter,os,"mouth, face"
256,dom,fourth,feminine,gradus,"house, home"
257,exercit,fourth,masculine,gradus,army
258,impet,fourth,masculine,gradus,"attack, impulse"
259,man,fourth,feminine,gradus,"hand, band"
260,met,fourth,masculine,gradus,fear
261,port,fourth,masculine,gradus,"harbour, port"
262,senat,fourth,masculine,gradus,senate
263,tumult,fourth,masculine,gradus,"uproar, disturbance, civil war"
264,us,fourth,masculine,gradus,"use, experience, practice"
265,vult,fourth,masculine,gradus,"face, expression"
266,corn,fourth,neuter,cornu,"horn, wing"
267,aci,fifth,feminine,res,"line, battle line, army"
268,di,fifth,masculine,res,day
269,fid,fifth,feminine,res,"trust, faith, confidence, loyalty"
270,r,fifth,feminine,res,"thing, affair, matter, business"
271,sp,fifth,feminine,res,hope
